^C:\USERS\ARKE\DOCUMENTS\VISUAL STUDIO 2013\PROJECTS\SILENTBOT\SILENTBOT\STDAFX.CPP
/c /ZI /nologo /W3 /WX- /sdl /Od /Oy- /D WIN32 /D _DEBUG /D _CONSOLE /D _LIB /D _UNICODE /D UNICODE /Gm /EHsc /RTC1 /MDd /GS /fp:precise /Zc:wchar_t /Zc:forScope /Yc"stdafx.h" /Fp"DEBUG\SILENTBOT.PCH" /Fo"DEBUG\\" /Fd"DEBUG\VC120.PDB" /Gd /TP /analyze- C:\USERS\ARKE\DOCUMENTS\VISUAL STUDIO 2013\PROJECTS\SILENTBOT\SILENTBOT\STDAFX.CPP
^C:\USERS\ARKE\DOCUMENTS\VISUAL STUDIO 2013\PROJECTS\SILENTBOT\SILENTBOT\SILENTBOT.CPP
/c /ZI /nologo /W3 /WX- /sdl /Od /Oy- /D WIN32 /D _DEBUG /D _CONSOLE /D _LIB /D _UNICODE /D UNICODE /Gm /EHsc /RTC1 /MDd /GS /fp:precise /Zc:wchar_t /Zc:forScope /Yu"stdafx.h" /Fp"DEBUG\SILENTBOT.PCH" /Fo"DEBUG\\" /Fd"DEBUG\VC120.PDB" /Gd /TP /analyze- C:\USERS\ARKE\DOCUMENTS\VISUAL STUDIO 2013\PROJECTS\SILENTBOT\SILENTBOT\SILENTBOT.CPP
